{
    "Version": "2012-10-17",
    "Statement": [
      {
        "Effect": "Allow",
        "Action": [
          "kms:Decrypt",
          "ssm:GetParameters",
          "secretsmanager:GetSecretValue"
        ],
        "Resource": [
            "arn:aws:secretsmanager:us-east-1:429213281618:secret:gitlab_lci-wYI4a6",
            "arn:aws:kms:us-east-1:429213281618:key/key_id"     
        ]
      },
      {
        "Effect": "Allow",
        "Action": [
          "ecr:GetAuthorizationToken",
          "ecr:BatchCheckLayerAvailability",
          "ecr:GetDownloadUrlForLayer",
          "ecr:BatchGetImage",
          "logs:CreateLogStream",
          "logs:PutLogEvents"
        ],
        "Resource": "*"
      }
    ]
}
